%YAML 1.1
%TAG !u! tag:unity3d.com,2011:
--- !u!687078895 &4343727234628468602
SpriteAtlas:
  m_ObjectHideFlags: 0
  m_CorrespondingSourceObject: {fileID: 0}
  m_PrefabInstance: {fileID: 0}
  m_PrefabAsset: {fileID: 0}
  m_Name: New Sprite Atlas
  m_EditorData:
    serializedVersion: 2
    textureSettings:
      serializedVersion: 2
      anisoLevel: 1
      compressionQuality: 50
      maxTextureSize: 2048
      textureCompression: 0
      filterMode: 1
      generateMipMaps: 0
      readable: 0
      crunchedCompression: 0
      sRGB: 1
    platformSettings: []
    packingSettings:
      serializedVersion: 2
      padding: 4
      blockOffset: 1
      allowAlphaSplitting: 0
      enableRotation: 1
      enableTightPacking: 1
      enableAlphaDilation: 0
    secondaryTextureSettings: {}
    variantMultiplier: 1
    packables:
    - {fileID: 2800000, guid: fa9f29b5fef5643f9827d1ec94043e27, type: 3}
    - {fileID: 2800000, guid: 5c3252f7f0baf439e900379641bb5909, type: 3}
    - {fileID: 2800000, guid: 95d2e2e56f12a405cbc2077e5522dbe4, type: 3}
    - {fileID: 2800000, guid: 1f650749ddfa14042b8314119102cbe7, type: 3}
    bindAsDefault: 1
    isAtlasV2: 0
    cachedData: {fileID: 0}
  m_MasterAtlas: {fileID: 0}
  m_PackedSprites:
  - {fileID: 21300000, guid: fa9f29b5fef5643f9827d1ec94043e27, type: 3}
  - {fileID: 21300000, guid: 95d2e2e56f12a405cbc2077e5522dbe4, type: 3}
  - {fileID: 21300000, guid: 5c3252f7f0baf439e900379641bb5909, type: 3}
  - {fileID: 21300000, guid: 1f650749ddfa14042b8314119102cbe7, type: 3}
  m_PackedSpriteNamesToIndex:
  - snow
  - plant
  - boss
  - pot
  m_RenderDataMap: {}
  m_Tag: New Sprite Atlas
  m_IsVariant: 0
